{
    "id": "textFieldWidget",
    "name": "textFieldWidget",
    "description": "A Text Field Widget That Allows Formatting",
    "author": "Bernard Chung",
    "version": "1.0",
    "copyright": "Copyright (c) 2016",
    "license": "Public Domain",
    "min-alloy-version": "1.0",
    "min-titanium-version": "3.0",
    "tags": "",
    "platforms": "android,ios"
}
